Bayes Rules - Chapter 2
…
1.5 now include more info

Collapse/show the code below

df <- fake_news %>% 
  select(type, title_has_excl, text_words) %>% 
  transmute(type, title_has_excl, test_words_dummy = if_else(text_words > median(text_words), 'high', 'low')) %>% 
  tibble()
df

# A tibble: 150 × 3
   type  title_has_excl test_words_dummy
   <fct> <lgl>          <chr>           
 1 fake  FALSE          low             
 2 real  FALSE          high            
 3 fake  TRUE           high            
 4 real  FALSE          low             
 5 fake  FALSE          high            
 6 real  FALSE          low             
 7 fake  FALSE          low             
 8 fake  TRUE           high            
 9 fake  FALSE          high            
10 real  FALSE          high            
# … with 140 more rows
…
3.2 pi has prior Uniform distribution

Collapse/show the code below

n = 1000
pi <- seq(0, 1, length.out = n)
prior <- rep(1/n, n)
df <- tibble(pi, prior)
df

# A tibble: 1,000 × 2
        pi prior
     <dbl> <dbl>
 1 0       0.001
 2 0.00100 0.001
 3 0.00200 0.001
 4 0.00300 0.001
 5 0.00400 0.001
 6 0.00501 0.001
 7 0.00601 0.001
 8 0.00701 0.001
 9 0.00801 0.001
10 0.00901 0.001
# … with 990 more rows

Collapse/show the code below

df <- df %>% 
  mutate(likelihood = dbinom(100, 600, pi)) %>% 
  mutate(posterior_num = prior*likelihood) %>% 
  mutate(posterior = posterior_num/sum(posterior_num))

df

# A tibble: 1,000 × 5
        pi prior likelihood posterior_num posterior
     <dbl> <dbl>      <dbl>         <dbl>     <dbl>
 1 0       0.001  0             0         0        
 2 0.00100 0.001  7.44e-185     7.44e-188 4.48e-185
 3 0.00200 0.001  5.72e-155     5.72e-158 3.44e-155
 4 0.00300 0.001  1.41e-137     1.41e-140 8.47e-138
 5 0.00400 0.001  2.66e-125     2.66e-128 1.60e-125
 6 0.00501 0.001  7.88e-116     7.88e-119 4.74e-116
 7 0.00601 0.001  3.95e-108     3.95e-111 2.37e-108
 8 0.00701 0.001  1.18e-101     1.18e-104 7.10e-102
 9 0.00801 0.001  4.49e- 96     4.49e- 99 2.70e- 96
10 0.00901 0.001  3.54e- 91     3.54e- 94 2.13e- 91
# … with 990 more rows
…
3.3 pi has prior beta distribution

Collapse/show the code below

n = 1000
pi <- seq(0, 1, length.out = n)
prior <- dbeta(pi, 3, 2)
prior <- prior/sum(prior)
df <- tibble(pi, prior)
df

# A tibble: 1,000 × 2
        pi        prior
     <dbl>        <dbl>
 1 0       0           
 2 0.00100 0.0000000120
 3 0.00200 0.0000000480
 4 0.00300 0.000000108 
 5 0.00400 0.000000192 
 6 0.00501 0.000000299 
 7 0.00601 0.000000431 
 8 0.00701 0.000000586 
 9 0.00801 0.000000764 
10 0.00901 0.000000966 
# … with 990 more rows
…
