Bayes Rules! - Bayesian Simple Linear Regression
…
\[
\beta_1 \sim Normal(m_1, s_1^2)
\]

\[
\sigma \sim Exp(l)
\]

Example: Bike Sharing dataset

bikes %>% 
  tibble() 

# A tibble: 500 × 13
   date       season  year month day_o…¹ weekend holiday temp_…² temp_…³ humid…⁴
   <date>     <fct>  <int> <fct> <fct>   <lgl>   <fct>     <dbl>   <dbl>   <dbl>
 1 2011-01-01 winter  2011 Jan   Sat     TRUE    no         57.4    64.7    80.6
 2 2011-01-03 winter  2011 Jan   Mon     FALSE   no         46.5    49.0    43.7
 3 2011-01-04 winter  2011 Jan   Tue     FALSE   no         46.8    51.1    59.0
 4 2011-01-05 winter  2011 Jan   Wed     FALSE   no         48.7    52.6    43.7
 5 2011-01-07 winter  2011 Jan   Fri     FALSE   no         46.5    50.8    49.9
 6 2011-01-08 winter  2011 Jan   Sat     TRUE    no         44.2    46.6    53.6
 7 2011-01-10 winter  2011 Jan   Mon     FALSE   no         43.1    45.6    48.3
 8 2011-01-11 winter  2011 Jan   Tue     FALSE   no         44.5    49.2    68.6
 9 2011-01-12 winter  2011 Jan   Wed     FALSE   no         44.7    46.4    60.0
10 2011-01-13 winter  2011 Jan   Thu     FALSE   no         44.2    45.6    47.0
# … with 490 more rows, 3 more variables: windspeed <dbl>, weather_cat <fct>,
#   rides <int>, and abbreviated variable names ¹​day_of_week, ²​temp_actual,
#   ³​temp_feel, ⁴​humidity
…
Posterior parameter variation (betas, sigma)

Predict possibe predictions for x = 75?

set.seed(84735)
df2 <- 
  bike_model %>% 
  as_tibble() %>% 
  clean_names() %>% 
  mutate(mu_x_75 = temp_feel*75 + intercept ) %>% 
  mutate(preds_75 = rnorm(20000, mu_x_75, sigma))
df2

# A tibble: 20,000 × 5
   intercept temp_feel sigma mu_x_75 preds_75
       <dbl>     <dbl> <dbl>   <dbl>    <dbl>
 1    -2657.      88.2 1323.   3955.    4838.
 2    -2188.      83.0 1323.   4038.    3874.
 3    -1984.      81.5 1363.   4132.    5196.
 4    -2242.      82.5 1265.   3945.    4244.
 5    -1641.      74.7 1289.   3963.    4989.
 6    -3079.      94.8 1252.   4028.    6010.
 7    -1713.      75.6 1355.   3957.    4027.
 8    -1351.      71.0 1358.   3975.    6482.
 9    -2500.      84.7 1243.   3850.    4245.
10    -2194.      82.5 1253.   3995.    4619.
# … with 19,990 more rows
…
rstan predictions

set.seed(84735)
shortcut_prediction <- 
  posterior_predict(bike_model, 
                    newdata = data.frame(temp_feel = 75))
shortcut_prediction %>% 
  tibble()

# A tibble: 20,000 × 1
   .[,"1"]
     <dbl>
 1   4838.
 2   3874.
 3   5196.
 4   4244.
 5   4989.
 6   6010.
 7   4027.
 8   6482.
 9   4245.
10   4619.
# … with 19,990 more rows
…
