Bayes Rules! - Metropolis-Hasting Algorithm
…
  # 4. Return the chain locations
  return(tibble::tibble(iteration = c(1:N), mu))
  
}

Example

# experiment with N and w

set.seed(84735)
mh_simulation_1 <- mh_tour(N = 100000, w = 0.01)
mh_simulation_1

# A tibble: 100,000 × 2
   iteration    mu
       <int> <dbl>
 1         1  1.00
 2         2  1.00
 3         3  1.01
 4         4  1.01
 5         5  1.02
 6         6  1.03
 7         7  1.03
 8         8  1.04
 9         9  1.04
10        10  1.04
# … with 99,990 more rows
…
