Bayesian Statistics - some experiments
…
uniform-normal model

Assume that \(\mu\) can take any value from -1 and 5 with equal probability (so uniform prior, techncially discrete uniform prior). Generate data with mean 3 and see if posteriror will produce a distribution around 3.

Collapse/show the code below

mu <- seq(-1, 5, length.out = 100)
prior <- rep(1/100, 100)
df <- tibble(mu, prior)
df

# A tibble: 100 × 2
       mu prior
    <dbl> <dbl>
 1 -1      0.01
 2 -0.939  0.01
 3 -0.879  0.01
 4 -0.818  0.01
 5 -0.758  0.01
 6 -0.697  0.01
 7 -0.636  0.01
 8 -0.576  0.01
 9 -0.515  0.01
10 -0.455  0.01
# … with 90 more rows
…
