Bayes Rules! - Chapter 6
…
# step4: sample from the discretized posterior
set.seed(84735)
post_sample <- 
  grid_data %>% 
  select(pi_grid, posterior) %>% 
  sample_n(size = 10000, 
           weight = posterior, 
           replace = TRUE) %>% 
  select(pi_grid)

post_sample

# A tibble: 10,000 × 1
   pi_grid
     <dbl>
 1     0.8
 2     0.8
 3     0.8
 4     0.6
 5     0.8
 6     0.8
 7     0.8
 8     0.8
 9     0.8
10     0.8
# … with 9,990 more rows
…
Lets do it again for 100 values.

grid_data <- 
  tibble(pi_grid = seq(from = 0, to = 1, length = 100)) %>% #step1
  mutate(prior = dbeta(pi_grid, 2, 2),
         likelihood = dbinom(9, 10, pi_grid)) %>% #step2
   mutate(unnormalized = likelihood * prior,
         posterior = unnormalized / sum(unnormalized)) #step3
grid_data %>% 
  round(2)

# A tibble: 100 × 5
   pi_grid prior likelihood unnormalized posterior
     <dbl> <dbl>      <dbl>        <dbl>     <dbl>
 1    0     0             0            0         0
 2    0.01  0.06          0            0         0
 3    0.02  0.12          0            0         0
 4    0.03  0.18          0            0         0
 5    0.04  0.23          0            0         0
 6    0.05  0.29          0            0         0
 7    0.06  0.34          0            0         0
 8    0.07  0.39          0            0         0
 9    0.08  0.45          0            0         0
10    0.09  0.5           0            0         0
# … with 90 more rows
…
\[
\lambda | \{Y_1, Y_2\} \sim Gamma(3 + Y_1 + Y_2, 1 + 2) = Gamma(13, 3)
\]

grid_data <- 
  tibble(lambda_grid = seq(from = 0, to = 15, length = 100)) %>% #step1
  mutate(prior = dgamma(lambda_grid, 3, 1),
         likelihood = dpois(2, lambda_grid)*dpois(2, lambda_grid)) %>% #step2
   mutate(unnormalized = likelihood * prior,
         posterior = unnormalized / sum(unnormalized)) #step3
grid_data %>% 
  round(2)

# A tibble: 100 × 5
   lambda_grid prior likelihood unnormalized posterior
         <dbl> <dbl>      <dbl>        <dbl>     <dbl>
 1        0     0          0            0         0   
 2        0.15  0.01       0            0         0   
 3        0.3   0.03       0            0         0   
 4        0.45  0.07       0            0         0   
 5        0.61  0.1        0.01         0         0   
 6        0.76  0.13       0.02         0         0.01
 7        0.91  0.17       0.03         0         0.02
 8        1.06  0.19       0.04         0.01      0.03
 9        1.21  0.22       0.05         0.01      0.04
10        1.36  0.24       0.06         0.01      0.05
# … with 90 more rows
…
